{
    "succcess": true,
    "rows": [
        {
            "event": "8.03 - 8:05",
            "title": "Event Name 1",
            "start": "2014-02-15T00:03:00.000Z",
            "end": "2014-02-15T00:05:00.000Z",
            "css": "red"
        },
        {
            "event": "7:00 - 7:05",
            "title": "Event Name 2",
            "start": "2014-02-15T23:00:00.000Z",
            "end": "2014-02-15T23:05:00.000Z",
            "css": "blue"
        },
        {
            "event": "7:00 - 7:10",
            "title": "Event Name 3",
            "start": "2014-02-15T23:00:00.000Z",
            "end": "2014-02-15T23:10:00.000Z",
            "css": "green"
        },
        {
            "event": "7:06 - 7:15",
            "title": "Event Name 4",
            "start": "2014-02-15T23:06:00.000Z",
            "end": "2014-02-15T23:15:00.000Z",
            "css": "gray"
        },
        {
            "event": "19.00 - 20:30",
            "title": "Event Name 5",
            "start": "2014-02-27T11:00:00.000Z",
            "end": "2014-02-27T12:30:00.000Z",
            "css": "lime"
        },
        {
            "event": "13:15 - 14:05",
            "title": "Event Name 6",
            "start": "2014-02-20T05:15:00.000Z",
            "end": "2014-02-20T06:05:00.000Z",
            "css": "yellow"
        },
        {
            "event": "15:00 - 16:10",
            "title": "Event Name 7",
            "start": "2014-02-02T07:00:00.000Z",
            "end": "2014-02-02T08:10:00.000Z",
            "css": ""
        },
        {
            "event": "00:00 - 00:00",
            "title": "Event Name 8",
            "start": "2014-02-05T16:00:00.000Z",
            "end": "2014-02-06T16:00:00.000Z",
            "css": ""
        }
    ]
}